<?xml version="1.0" standalone="no"?>
<!DOCTYPE svg PUBLIC "-//W3C//DTD SVG 20010904//EN"
 "http://www.w3.org/TR/2001/REC-SVG-20010904/DTD/svg10.dtd">
<svg version="1.0" xmlns="http://www.w3.org/2000/svg"
 width="596.000000pt" height="596.000000pt" viewBox="0 0 596.000000 596.000000"
 preserveAspectRatio="xMidYMid meet">
<metadata>
Created by potrace 1.14, written by Peter Selinger 2001-2017
</metadata>
<g transform="translate(0.000000,596.000000) scale(0.100000,-0.100000)"
fill="#000000" stroke="none">
<path d="M2947 5869 c-504 -30 -1029 -222 -1481 -542 -276 -195 -555 -483
-739 -764 -222 -340 -394 -743 -471 -1110 -48 -229 -59 -354 -60 -678 -1 -323
8 -418 60 -655 143 -647 544 -1197 1116 -1532 60 -35 156 -94 215 -131 294
-185 618 -305 953 -352 167 -24 470 -25 640 -1 395 53 786 195 1139 413 394
243 735 585 969 973 252 416 400 826 459 1267 24 187 25 682 0 848 -107 720
-444 1281 -1002 1670 -49 34 -128 84 -175 110 -47 27 -126 75 -177 107 -204
130 -425 230 -643 293 -244 70 -535 101 -803 84z m-1183 -1008 c-118 -388
-134 -841 -44 -1251 178 -819 762 -1506 1540 -1813 317 -125 574 -172 940
-172 322 0 507 28 803 121 23 7 -54 -119 -156 -255 -93 -125 -325 -357 -452
-451 -374 -280 -819 -446 -1275 -476 -98 -6 -113 -4 -195 21 -320 97 -633 271
-895 496 -47 40 -74 60 -60 45 41 -46 218 -185 330 -259 135 -89 391 -214 545
-266 l120 -41 -56 0 c-86 0 -251 18 -374 41 -221 41 -397 100 -610 204 -470
229 -845 602 -1074 1068 -171 348 -244 658 -245 1042 -1 211 10 312 51 509
116 559 458 1081 926 1416 87 63 210 141 214 137 1 -1 -14 -53 -33 -116z
m2296 -302 c138 -319 158 -358 200 -382 17 -10 158 -32 405 -63 209 -25 382
-48 384 -50 4 -4 -39 -44 -314 -288 -115 -102 -225 -207 -243 -234 -40 -56
-45 -10 48 -462 39 -189 69 -350 68 -358 -2 -8 -110 50 -303 163 -355 209
-366 215 -402 215 -35 0 -26 5 -403 -212 -168 -97 -306 -175 -307 -174 -1 1
31 166 72 366 41 201 75 379 75 396 0 17 -10 46 -23 65 -12 19 -146 144 -296
279 l-274 245 39 7 c21 4 189 23 371 43 183 19 348 41 365 49 18 7 43 25 56
38 18 20 107 214 313 688 l11 25 14 -26 c7 -15 72 -163 144 -330z"/>
</g>
</svg>
